<?xml version="1.0" encoding="UTF-8" standalone="no"?>
<svg
   xmlns:dc="http://purl.org/dc/elements/1.1/"
   xmlns:cc="http://creativecommons.org/ns#"
   xmlns:rdf="http://www.w3.org/1999/02/22-rdf-syntax-ns#"
   xmlns:svg="http://www.w3.org/2000/svg"
   xmlns="http://www.w3.org/2000/svg"
   xmlns:sodipodi="http://sodipodi.sourceforge.net/DTD/sodipodi-0.dtd"
   xmlns:inkscape="http://www.inkscape.org/namespaces/inkscape"
   sodipodi:docname="universis-signer-icon.svg"
   inkscape:version="1.0 (4035a4fb49, 2020-05-01)"
   inkscape:export-ydpi="13.653334"
   inkscape:export-xdpi="13.653334"
   inkscape:export-filename="C:\Users\kyrba\Downloads\universis_signer.icon.png"
   id="svg8"
   version="1.1"
   viewBox="0 0 238.12499 238.12501"
   height="900"
   width="900">
  <defs
     id="defs2" />
  <sodipodi:namedview
     inkscape:document-rotation="0"
     inkscape:window-maximized="1"
     inkscape:window-y="-8"
     inkscape:window-x="-8"
     inkscape:window-height="987"
     inkscape:window-width="1680"
     units="px"
     showgrid="true"
     inkscape:current-layer="layer1"
     inkscape:document-units="mm"
     inkscape:cy="530.50023"
     inkscape:cx="317.14286"
     inkscape:zoom="0.35927152"
     inkscape:pageshadow="2"
     inkscape:pageopacity="0.0"
     borderopacity="1.0"
     bordercolor="#666666"
     pagecolor="#ffffff"
     id="base">
    <inkscape:grid
       id="grid3713"
       type="xygrid" />
  </sodipodi:namedview>
  <metadata
     id="metadata5">
    <rdf:RDF>
      <cc:Work
         rdf:about="">
        <dc:format>image/svg+xml</dc:format>
        <dc:type
           rdf:resource="http://purl.org/dc/dcmitype/StillImage" />
        <dc:title></dc:title>
      </cc:Work>
    </rdf:RDF>
  </metadata>
  <g
     transform="translate(0,-58.874983)"
     id="layer1"
     inkscape:groupmode="layer"
     inkscape:label="Layer 1">
    <rect
       ry="30.342411"
       transform="rotate(-45.765759)"
       style="fill:#0000ff;stroke-width:0.264583"
       y="124.7689"
       x="-123.8089"
       height="169.33333"
       width="158.75"
       id="rect3715" />
    <rect
       ry="12.350712"
       transform="rotate(-45.765759)"
       style="fill:#ff00ff;stroke-width:0.110615"
       y="202.64731"
       x="-53.6558"
       height="70.793655"
       width="66.369057"
       id="rect3715-3" />
  </g>
</svg>
